623745633;1530860546938546032788
704930705;1530860546946554168147
640231497;1530860546949727691468
881560525;1530860546950157780071
834875049;1530860546950192497295
631897126;1530860546938546032788
704930705;1530860546946554168147
704930705;1530860546946554168147
640231497;1530860546949727691468
881560525;1530860546950157780071
834875049;1530860546950192497295
631897126;1530860546938546032788